{
  "images" : [
    {
      "idiom" : "universal"
    },
    {
      "idiom" : "universal",
      "scale" : "1x"
    },
    {
      "idiom" : "universal",
      "scale" : "2x"
    },
    {
      "idiom" : "universal",
      "scale" : "3x"
    },
    {
      "idiom" : "iphone"
    },
    {
      "idiom" : "iphone",
      "scale" : "1x",
      "filename" : "Default.png"
    },
    {
      "idiom" : "iphone",
      "scale" : "2x",
      "filename" : "Default@2x.png"
    },
    {
      "idiom" : "iphone",
      "scale" : "3x"
    }
  ],
  "info" : {
    "version" : 1,
    "author" : "xcode"
  }
}